[gd_scene load_steps=40 format=3 uid="uid://crqeg4r4notfx"]

[ext_resource type="Texture2D" uid="uid://wtaabmfveqs8" path="res://assets/Tiles/woods/png/Tiles/1.png" id="1_fpwuv"]
[ext_resource type="Texture2D" uid="uid://dbn1tcs2qhio0" path="res://assets/Tiles/woods/png/Tiles/2.png" id="2_76l3s"]
[ext_resource type="Texture2D" uid="uid://db6o0aajuj2gx" path="res://assets/Tiles/woods/png/Tiles/11.png" id="3_oprfn"]
[ext_resource type="Texture2D" uid="uid://cvp02usiau6sy" path="res://assets/Tiles/woods/png/Tiles/12.png" id="4_56tje"]
[ext_resource type="Texture2D" uid="uid://cimiydkvb14gy" path="res://assets/Tiles/woods/png/Tiles/13.png" id="5_ipb8q"]
[ext_resource type="Texture2D" uid="uid://bfsu0njc5vc6" path="res://assets/Tiles/woods/png/Tiles/14.png" id="6_sijjk"]
[ext_resource type="Texture2D" uid="uid://cx2nakuqs42hw" path="res://assets/Tiles/woods/png/Tiles/15.png" id="7_evqul"]
[ext_resource type="Texture2D" uid="uid://7uh0exgcv48m" path="res://assets/Tiles/woods/png/Tiles/16.png" id="8_8tsqs"]
[ext_resource type="Texture2D" uid="uid://re0d25r4yh3u" path="res://assets/Tiles/woods/png/Tiles/17.png" id="9_a7inb"]
[ext_resource type="Texture2D" uid="uid://dmmvm04f5843y" path="res://assets/Tiles/woods/png/Tiles/18.png" id="10_3vt5b"]
[ext_resource type="Texture2D" uid="uid://ffqoh4h1f6a" path="res://assets/Tiles/woods/png/Tiles/3.png" id="11_yuic8"]
[ext_resource type="Texture2D" uid="uid://gby8704eekjl" path="res://assets/Tiles/woods/png/Tiles/4.png" id="12_vtkkd"]
[ext_resource type="Texture2D" uid="uid://b45icus3rbq4g" path="res://assets/Tiles/woods/png/Tiles/5.png" id="13_h77ud"]
[ext_resource type="Texture2D" uid="uid://3syhswoju48o" path="res://assets/Tiles/woods/png/Tiles/6.png" id="14_kbu6f"]
[ext_resource type="Texture2D" uid="uid://bgmiujm1xcw4d" path="res://assets/Tiles/woods/png/Tiles/7.png" id="15_ofkxo"]
[ext_resource type="Texture2D" uid="uid://dn1d7ace2ucdm" path="res://assets/Tiles/woods/png/Tiles/8.png" id="16_hdesr"]
[ext_resource type="Texture2D" uid="uid://cpaew2itsnmcq" path="res://assets/Tiles/woods/png/Tiles/9.png" id="17_11o1s"]
[ext_resource type="Texture2D" uid="uid://baaginibvens1" path="res://assets/Tiles/woods/png/Tiles/10.png" id="18_duwwi"]
[ext_resource type="Script" path="res://src/Woods/MultiplayerSpawner.gd" id="19_pqn8i"]
[ext_resource type="PackedScene" uid="uid://ru10htvhinio" path="res://src/Battler/Battler.tscn" id="20_un3mw"]

[sub_resource type="TileSetAtlasSource" id="TileSetAtlasSource_h4kdm"]
texture = ExtResource("1_fpwuv")
texture_region_size = Vector2i(128, 128)
0:0/0 = 0
0:0/0/terrain_set = 0
0:0/0/terrain = 0
0:0/0/physics_layer_0/linear_velocity = Vector2(0, 0)
0:0/0/physics_layer_0/angular_velocity = 0.0
0:0/0/physics_layer_0/polygon_0/points = PackedVector2Array(-64, -64, 64, -64, 64, 64, -64, 64)
0:0/0/terrains_peering_bit/bottom_right_corner = 0
0:0/0/terrains_peering_bit/top_right_corner = 2

[sub_resource type="TileSetAtlasSource" id="TileSetAtlasSource_l6lmj"]
texture = ExtResource("2_76l3s")
texture_region_size = Vector2i(128, 128)
0:0/0 = 0
0:0/0/terrain_set = 0
0:0/0/terrain = 0
0:0/0/physics_layer_0/linear_velocity = Vector2(0, 0)
0:0/0/physics_layer_0/angular_velocity = 0.0
0:0/0/physics_layer_0/polygon_0/points = PackedVector2Array(-64, -64, 64, -64, 64, 64, -64, 64)
0:0/0/terrains_peering_bit/bottom_right_corner = 0
0:0/0/terrains_peering_bit/bottom_left_corner = 0
0:0/0/terrains_peering_bit/top_left_corner = 2
0:0/0/terrains_peering_bit/top_right_corner = 2

[sub_resource type="TileSetAtlasSource" id="TileSetAtlasSource_4a2cj"]
texture = ExtResource("11_yuic8")
texture_region_size = Vector2i(128, 128)
0:0/0 = 0
0:0/0/terrain_set = 0
0:0/0/terrain = 0
0:0/0/physics_layer_0/linear_velocity = Vector2(0, 0)
0:0/0/physics_layer_0/angular_velocity = 0.0
0:0/0/physics_layer_0/polygon_0/points = PackedVector2Array(-64, -64, 64, -64, 64, 64, -64, 64)
0:0/0/terrains_peering_bit/bottom_left_corner = 0
0:0/0/terrains_peering_bit/top_left_corner = 2

[sub_resource type="TileSetAtlasSource" id="TileSetAtlasSource_qstjf"]
texture = ExtResource("12_vtkkd")
texture_region_size = Vector2i(128, 128)
0:0/0 = 0
0:0/0/terrain_set = 0
0:0/0/terrain = 0
0:0/0/physics_layer_0/linear_velocity = Vector2(0, 0)
0:0/0/physics_layer_0/angular_velocity = 0.0
0:0/0/physics_layer_0/polygon_0/points = PackedVector2Array(-64, -64, 64, -64, 64, 64, -64, 64)
0:0/0/terrains_peering_bit/bottom_right_corner = 0
0:0/0/terrains_peering_bit/top_right_corner = 0

[sub_resource type="TileSetAtlasSource" id="TileSetAtlasSource_tbbd5"]
texture = ExtResource("13_h77ud")
texture_region_size = Vector2i(128, 128)
0:0/0 = 0
0:0/0/terrain_set = 0
0:0/0/terrain = 0
0:0/0/physics_layer_0/linear_velocity = Vector2(0, 0)
0:0/0/physics_layer_0/angular_velocity = 0.0
0:0/0/physics_layer_0/polygon_0/points = PackedVector2Array(-64, -64, 64, -64, 64, 64, -64, 64)
0:0/0/terrains_peering_bit/bottom_right_corner = 0
0:0/0/terrains_peering_bit/bottom_left_corner = 0
0:0/0/terrains_peering_bit/top_left_corner = 0
0:0/0/terrains_peering_bit/top_right_corner = 0

[sub_resource type="TileSetAtlasSource" id="TileSetAtlasSource_qvm17"]
texture = ExtResource("14_kbu6f")
texture_region_size = Vector2i(128, 128)
0:0/0 = 0
0:0/0/terrain_set = 0
0:0/0/terrain = 0
0:0/0/physics_layer_0/linear_velocity = Vector2(0, 0)
0:0/0/physics_layer_0/angular_velocity = 0.0
0:0/0/physics_layer_0/polygon_0/points = PackedVector2Array(-64, -64, 64, -64, 64, 64, -64, 64)
0:0/0/terrains_peering_bit/bottom_left_corner = 0
0:0/0/terrains_peering_bit/top_left_corner = 0

[sub_resource type="TileSetAtlasSource" id="TileSetAtlasSource_gdthh"]
texture = ExtResource("15_ofkxo")
texture_region_size = Vector2i(128, 128)
0:0/0 = 0
0:0/0/terrain_set = 0
0:0/0/terrain = 0
0:0/0/physics_layer_0/linear_velocity = Vector2(0, 0)
0:0/0/physics_layer_0/angular_velocity = 0.0
0:0/0/physics_layer_0/polygon_0/points = PackedVector2Array(-64, -64, 64, -64, 64, 64, -64, 64)
0:0/0/terrains_peering_bit/bottom_right_corner = 0
0:0/0/terrains_peering_bit/bottom_left_corner = 0
0:0/0/terrains_peering_bit/top_left_corner = 2
0:0/0/terrains_peering_bit/top_right_corner = 0

[sub_resource type="TileSetAtlasSource" id="TileSetAtlasSource_uetan"]
texture = ExtResource("16_hdesr")
texture_region_size = Vector2i(128, 128)
0:0/0 = 0
0:0/0/terrain_set = 0
0:0/0/terrain = 0
0:0/0/physics_layer_0/linear_velocity = Vector2(0, 0)
0:0/0/physics_layer_0/angular_velocity = 0.0
0:0/0/physics_layer_0/polygon_0/points = PackedVector2Array(-64, -64, 64, -64, 64, 64, -64, 64)
0:0/0/terrains_peering_bit/bottom_right_corner = 0
0:0/0/terrains_peering_bit/bottom_left_corner = 0
0:0/0/terrains_peering_bit/top_left_corner = 0
0:0/0/terrains_peering_bit/top_right_corner = 0

[sub_resource type="TileSetAtlasSource" id="TileSetAtlasSource_ew1do"]
texture = ExtResource("17_11o1s")
texture_region_size = Vector2i(128, 128)
0:0/0 = 0
0:0/0/terrain_set = 0
0:0/0/terrain = 0
0:0/0/physics_layer_0/linear_velocity = Vector2(0, 0)
0:0/0/physics_layer_0/angular_velocity = 0.0
0:0/0/physics_layer_0/polygon_0/points = PackedVector2Array(-64, -64, 64, -64, 64, 64, -64, 64)
0:0/0/terrains_peering_bit/top_left_corner = 0
0:0/0/terrains_peering_bit/top_right_corner = 0

[sub_resource type="TileSetAtlasSource" id="TileSetAtlasSource_od1rh"]
texture = ExtResource("18_duwwi")
texture_region_size = Vector2i(128, 128)
0:0/0 = 0
0:0/0/terrain_set = 0
0:0/0/terrain = 0
0:0/0/physics_layer_0/linear_velocity = Vector2(0, 0)
0:0/0/physics_layer_0/angular_velocity = 0.0
0:0/0/physics_layer_0/polygon_0/points = PackedVector2Array(-64, -64, 64, -64, 64, 64, -64, 64)
0:0/0/terrains_peering_bit/bottom_right_corner = 0
0:0/0/terrains_peering_bit/bottom_left_corner = 0
0:0/0/terrains_peering_bit/top_left_corner = 0
0:0/0/terrains_peering_bit/top_right_corner = 0

[sub_resource type="TileSetAtlasSource" id="TileSetAtlasSource_bbox3"]
texture = ExtResource("3_oprfn")
texture_region_size = Vector2i(128, 128)
0:0/0 = 0
0:0/0/terrain_set = 0
0:0/0/terrain = 0
0:0/0/physics_layer_0/linear_velocity = Vector2(0, 0)
0:0/0/physics_layer_0/angular_velocity = 0.0
0:0/0/physics_layer_0/polygon_0/points = PackedVector2Array(-64, -64, 64, -64, 64, 64, -64, 64)
0:0/0/terrains_peering_bit/bottom_right_corner = 0
0:0/0/terrains_peering_bit/bottom_left_corner = 0
0:0/0/terrains_peering_bit/top_left_corner = 0
0:0/0/terrains_peering_bit/top_right_corner = 2

[sub_resource type="TileSetAtlasSource" id="TileSetAtlasSource_4b5j7"]
texture = ExtResource("4_56tje")
texture_region_size = Vector2i(128, 128)
0:0/0 = 0
0:0/0/terrain_set = 0
0:0/0/terrain = 0
0:0/0/physics_layer_0/linear_velocity = Vector2(0, 0)
0:0/0/physics_layer_0/angular_velocity = 0.0
0:0/0/physics_layer_0/polygon_0/points = PackedVector2Array(-64, -64, 64, -64, 64, 64, -64, 64)
0:0/0/terrains_peering_bit/top_right_corner = 0

[sub_resource type="TileSetAtlasSource" id="TileSetAtlasSource_e50my"]
texture = ExtResource("8_8tsqs")
texture_region_size = Vector2i(128, 128)
0:0/0 = 0
0:0/0/terrain_set = 0
0:0/0/terrain = 0
0:0/0/physics_layer_0/linear_velocity = Vector2(0, 0)
0:0/0/physics_layer_0/angular_velocity = 0.0
0:0/0/physics_layer_0/polygon_0/points = PackedVector2Array(-64, -64, 64, -64, 64, 64, -64, 64)
0:0/0/terrains_peering_bit/top_left_corner = 0

[sub_resource type="TileSetAtlasSource" id="TileSetAtlasSource_sbyor"]
texture = ExtResource("10_3vt5b")
texture_region_size = Vector2i(128, 128)
0:0/0 = 0
0:0/0/terrain_set = 0
0:0/0/terrain = 1
0:0/0/physics_layer_0/linear_velocity = Vector2(0, 0)
0:0/0/physics_layer_0/angular_velocity = 0.0
0:0/0/terrains_peering_bit/bottom_right_corner = 1
0:0/0/terrains_peering_bit/bottom_left_corner = 1
0:0/0/terrains_peering_bit/top_left_corner = 1
0:0/0/terrains_peering_bit/top_right_corner = 1

[sub_resource type="TileSetAtlasSource" id="TileSetAtlasSource_nke6k"]
texture = ExtResource("5_ipb8q")
texture_region_size = Vector2i(128, 93)
0:0/0 = 0
0:0/0/terrain_set = 0
0:0/0/terrain = 0
0:0/0/physics_layer_0/linear_velocity = Vector2(0, 0)
0:0/0/physics_layer_0/angular_velocity = 0.0
0:0/0/physics_layer_0/polygon_0/points = PackedVector2Array(-64, -46, 64, -46, 64, 46, 21, 46, -64, -12)

[sub_resource type="TileSetAtlasSource" id="TileSetAtlasSource_6sj8o"]
texture = ExtResource("6_sijjk")
texture_region_size = Vector2i(128, 93)
0:0/0 = 0
0:0/0/terrain_set = 0
0:0/0/terrain = 0
0:0/0/physics_layer_0/linear_velocity = Vector2(0, 0)
0:0/0/physics_layer_0/angular_velocity = 0.0
0:0/0/physics_layer_0/polygon_0/points = PackedVector2Array(-64, 48, 64, 49, 64, -46, -64, -46)

[sub_resource type="TileSetAtlasSource" id="TileSetAtlasSource_boy64"]
texture = ExtResource("7_evqul")
texture_region_size = Vector2i(128, 93)
0:0/0 = 0
0:0/0/terrain_set = 0
0:0/0/terrain = 0
0:0/0/physics_layer_0/linear_velocity = Vector2(0, 0)
0:0/0/physics_layer_0/angular_velocity = 0.0
0:0/0/physics_layer_0/polygon_0/points = PackedVector2Array(-64, 48, 64, 49, 64, -46, -64, -46)

[sub_resource type="TileSetAtlasSource" id="TileSetAtlasSource_w8sry"]
texture = ExtResource("9_a7inb")
texture_region_size = Vector2i(128, 99)
0:0/0 = 0
0:0/0/physics_layer_0/linear_velocity = Vector2(0, 0)
0:0/0/physics_layer_0/angular_velocity = 0.0

[sub_resource type="TileSet" id="TileSet_s8vyf"]
tile_size = Vector2i(128, 128)
physics_layer_0/collision_layer = 1
terrain_set_0/mode = 1
terrain_set_0/terrain_0/name = "Earth"
terrain_set_0/terrain_0/color = Color(0.501961, 0.345098, 0.25098, 1)
terrain_set_0/terrain_1/name = "Water"
terrain_set_0/terrain_1/color = Color(0.258824, 0.333333, 1, 1)
terrain_set_0/terrain_2/name = "Grass"
terrain_set_0/terrain_2/color = Color(0, 0.576471, 0.0901961, 1)
sources/74 = SubResource("TileSetAtlasSource_h4kdm")
sources/75 = SubResource("TileSetAtlasSource_l6lmj")
sources/76 = SubResource("TileSetAtlasSource_4a2cj")
sources/77 = SubResource("TileSetAtlasSource_qstjf")
sources/78 = SubResource("TileSetAtlasSource_tbbd5")
sources/79 = SubResource("TileSetAtlasSource_qvm17")
sources/80 = SubResource("TileSetAtlasSource_gdthh")
sources/81 = SubResource("TileSetAtlasSource_uetan")
sources/82 = SubResource("TileSetAtlasSource_ew1do")
sources/83 = SubResource("TileSetAtlasSource_od1rh")
sources/84 = SubResource("TileSetAtlasSource_bbox3")
sources/85 = SubResource("TileSetAtlasSource_4b5j7")
sources/86 = SubResource("TileSetAtlasSource_e50my")
sources/87 = SubResource("TileSetAtlasSource_sbyor")
sources/88 = SubResource("TileSetAtlasSource_nke6k")
sources/89 = SubResource("TileSetAtlasSource_6sj8o")
sources/90 = SubResource("TileSetAtlasSource_boy64")
sources/91 = SubResource("TileSetAtlasSource_w8sry")

[node name="Woods" type="Node2D"]

[node name="Background" type="TileMap" parent="."]
position = Vector2(0, 1)
tile_set = SubResource("TileSet_s8vyf")
cell_quadrant_size = 128
format = 2
layer_0/tile_data = PackedInt32Array(131081, 75, 0, 131082, 75, 0, 131083, 75, 0, 131084, 75, 0, 131085, 75, 0, 131086, 75, 0, 131087, 76, 0, 262132, 77, 0, 196623, 79, 0, 196617, 78, 0, 196618, 78, 0, 196619, 78, 0, 196620, 78, 0, 196621, 78, 0, 196622, 78, 0, 262133, 78, 0, 196597, 75, 0, 196602, 75, 0, 196603, 75, 0, 196604, 75, 0, 196605, 75, 0, 196606, 75, 0, 196607, 75, 0, 131072, 75, 0, 131073, 75, 0, 131074, 75, 0, 131075, 75, 0, 131076, 75, 0, 131077, 75, 0, 131078, 75, 0, 131079, 75, 0, 131080, 75, 0, 262139, 78, 0, 262138, 78, 0, 262140, 78, 0, 262141, 78, 0, 262142, 78, 0, 262143, 78, 0, 196608, 78, 0, 196609, 78, 0, 262137, 78, 0, 262136, 78, 0, 262135, 78, 0, 262134, 78, 0, 196596, 74, 0, 196610, 78, 0, 196611, 78, 0, 196612, 78, 0, 196613, 78, 0, 196614, 78, 0, 196615, 78, 0, 196616, 78, 0, 196599, 75, 0, 196600, 75, 0, 196598, 75, 0, 196601, 75, 0, 1, 90, 0, 0, 89, 0, 65535, 89, 0, 65534, 89, 0, 65533, 88, 0, -131069, 88, 0, -131068, 89, 0, -131067, 89, 0, -131065, 89, 0, -131066, 89, 0, -131064, 90, 0, -6, 90, 0, -7, 89, 0, -8, 89, 0, -9, 89, 0, -10, 89, 0, -11, 88, 0, 327668, 85, 0, 262159, 86, 0, 327669, 82, 0, 327670, 82, 0, 327671, 82, 0, 327672, 82, 0, 327673, 82, 0, 327674, 82, 0, 327675, 82, 0, 327676, 82, 0, 327677, 82, 0, 327678, 82, 0, 327679, 82, 0, 262144, 82, 0, 262145, 82, 0, 262146, 82, 0, 262147, 82, 0, 262148, 82, 0, 262149, 82, 0, 262150, 82, 0, 262151, 82, 0, 262152, 82, 0, 262153, 82, 0, 262154, 82, 0, 262155, 82, 0, 262156, 82, 0, 262157, 82, 0, 262158, 82, 0, 589788, 87, 0, 655324, 87, 0, 720860, 87, 0, 786396, 87, 0, 851932, 87, 0, 917468, 87, 0, 983004, 87, 0, 1048540, 87, 0, 1114076, 87, 0, 1179612, 87, 0, 589789, 87, 0, 655325, 87, 0, 720861, 87, 0, 786397, 87, 0, 851933, 87, 0, 917469, 87, 0, 983005, 87, 0, 1048541, 87, 0, 1114077, 87, 0, 1179613, 87, 0, 589790, 87, 0, 655326, 87, 0, 720862, 87, 0, 786398, 87, 0, 851934, 87, 0, 917470, 87, 0, 983006, 87, 0, 1048542, 87, 0, 1114078, 87, 0, 1179614, 87, 0, 589791, 87, 0, 655327, 87, 0, 720863, 87, 0, 786399, 87, 0, 851935, 87, 0, 917471, 87, 0, 983007, 87, 0, 1048543, 87, 0, 1114079, 87, 0, 1179615, 87, 0, 589792, 87, 0, 655328, 87, 0, 720864, 87, 0, 786400, 87, 0, 851936, 87, 0, 917472, 87, 0, 983008, 87, 0, 1048544, 87, 0, 1114080, 87, 0, 1179616, 87, 0, 589793, 87, 0, 655329, 87, 0, 720865, 87, 0, 786401, 87, 0, 851937, 87, 0, 917473, 87, 0, 983009, 87, 0, 1048545, 87, 0, 1114081, 87, 0, 1179617, 87, 0, 589794, 87, 0, 655330, 87, 0, 720866, 87, 0, 786402, 87, 0, 851938, 87, 0, 917474, 87, 0, 983010, 87, 0, 1048546, 87, 0, 1114082, 87, 0, 1179618, 87, 0, 589795, 87, 0, 655331, 87, 0, 720867, 87, 0, 786403, 87, 0, 851939, 87, 0, 917475, 87, 0, 983011, 87, 0, 1048547, 87, 0, 1114083, 87, 0, 1179619, 87, 0, 589796, 87, 0, 655332, 87, 0, 720868, 87, 0, 786404, 87, 0, 851940, 87, 0, 917476, 87, 0, 983012, 87, 0, 1048548, 87, 0, 1114084, 87, 0, 1179620, 87, 0, 589797, 87, 0, 655333, 87, 0, 720869, 87, 0, 786405, 87, 0, 851941, 87, 0, 917477, 87, 0, 983013, 87, 0, 1048549, 87, 0, 1114085, 87, 0, 1179621, 87, 0, 589798, 87, 0, 655334, 87, 0, 720870, 87, 0, 786406, 87, 0, 851942, 87, 0, 917478, 87, 0, 983014, 87, 0, 1048550, 87, 0, 1114086, 87, 0, 1179622, 87, 0, 589799, 87, 0, 655335, 87, 0, 720871, 87, 0, 786407, 87, 0, 851943, 87, 0, 917479, 87, 0, 983015, 87, 0, 1048551, 87, 0, 1114087, 87, 0, 1179623, 87, 0, 589800, 87, 0, 655336, 87, 0, 720872, 87, 0, 786408, 87, 0, 851944, 87, 0, 917480, 87, 0, 983016, 87, 0, 1048552, 87, 0, 1114088, 87, 0, 1179624, 87, 0, 589801, 87, 0, 655337, 87, 0, 720873, 87, 0, 786409, 87, 0, 851945, 87, 0, 917481, 87, 0, 983017, 87, 0, 1048553, 87, 0, 1114089, 87, 0, 1179625, 87, 0, 589802, 87, 0, 655338, 87, 0, 720874, 87, 0, 786410, 87, 0, 851946, 87, 0, 917482, 87, 0, 983018, 87, 0, 1048554, 87, 0, 1114090, 87, 0, 1179626, 87, 0, 589803, 87, 0, 655339, 87, 0, 720875, 87, 0, 786411, 87, 0, 851947, 87, 0, 917483, 87, 0, 983019, 87, 0, 1048555, 87, 0, 1114091, 87, 0, 1179627, 87, 0, 589804, 87, 0, 655340, 87, 0, 720876, 87, 0, 786412, 87, 0, 851948, 87, 0, 917484, 87, 0, 983020, 87, 0, 1048556, 87, 0, 1114092, 87, 0, 1179628, 87, 0, 589805, 87, 0, 655341, 87, 0, 720877, 87, 0, 786413, 87, 0, 851949, 87, 0, 917485, 87, 0, 983021, 87, 0, 1048557, 87, 0, 1114093, 87, 0, 1179629, 87, 0, 589806, 87, 0, 655342, 87, 0, 720878, 87, 0, 786414, 87, 0, 851950, 87, 0, 917486, 87, 0, 983022, 87, 0, 1048558, 87, 0, 1114094, 87, 0, 1179630, 87, 0, 589807, 87, 0, 655343, 87, 0, 720879, 87, 0, 786415, 87, 0, 851951, 87, 0, 917487, 87, 0, 983023, 87, 0, 1048559, 87, 0, 1114095, 87, 0, 1179631, 87, 0, 589808, 87, 0, 655344, 87, 0, 720880, 87, 0, 786416, 87, 0, 851952, 87, 0, 917488, 87, 0, 983024, 87, 0, 1048560, 87, 0, 1114096, 87, 0, 1179632, 87, 0, 589809, 87, 0, 655345, 87, 0, 720881, 87, 0, 786417, 87, 0, 851953, 87, 0, 917489, 87, 0, 983025, 87, 0, 1048561, 87, 0, 1114097, 87, 0, 1179633, 87, 0, 589810, 87, 0, 655346, 87, 0, 720882, 87, 0, 786418, 87, 0, 851954, 87, 0, 917490, 87, 0, 983026, 87, 0, 1048562, 87, 0, 1114098, 87, 0, 1179634, 87, 0, 589811, 87, 0, 655347, 87, 0, 720883, 87, 0, 786419, 87, 0, 851955, 87, 0, 917491, 87, 0, 983027, 87, 0, 1048563, 87, 0, 1114099, 87, 0, 1179635, 87, 0, 589812, 87, 0, 655348, 87, 0, 720884, 87, 0, 786420, 87, 0, 851956, 87, 0, 917492, 87, 0, 983028, 87, 0, 1048564, 87, 0, 1114100, 87, 0, 1179636, 87, 0, 589813, 87, 0, 655349, 87, 0, 720885, 87, 0, 786421, 87, 0, 851957, 87, 0, 917493, 87, 0, 983029, 87, 0, 1048565, 87, 0, 1114101, 87, 0, 1179637, 87, 0, 589814, 87, 0, 655350, 87, 0, 720886, 87, 0, 786422, 87, 0, 851958, 87, 0, 917494, 87, 0, 983030, 87, 0, 1048566, 87, 0, 1114102, 87, 0, 1179638, 87, 0, 589815, 87, 0, 655351, 87, 0, 720887, 87, 0, 786423, 87, 0, 851959, 87, 0, 917495, 87, 0, 983031, 87, 0, 1048567, 87, 0, 1114103, 87, 0, 1179639, 87, 0, 589816, 87, 0, 655352, 87, 0, 720888, 87, 0, 786424, 87, 0, 851960, 87, 0, 917496, 87, 0, 983032, 87, 0, 1048568, 87, 0, 1114104, 87, 0, 1179640, 87, 0, 589817, 87, 0, 655353, 87, 0, 720889, 87, 0, 786425, 87, 0, 851961, 87, 0, 917497, 87, 0, 983033, 87, 0, 1048569, 87, 0, 1114105, 87, 0, 1179641, 87, 0, 589818, 87, 0, 655354, 87, 0, 720890, 87, 0, 786426, 87, 0, 851962, 87, 0, 917498, 87, 0, 983034, 87, 0, 1048570, 87, 0, 1114106, 87, 0, 1179642, 87, 0, 589819, 87, 0, 655355, 87, 0, 720891, 87, 0, 786427, 87, 0, 851963, 87, 0, 917499, 87, 0, 983035, 87, 0, 1048571, 87, 0, 1114107, 87, 0, 1179643, 87, 0, 589820, 87, 0, 655356, 87, 0, 720892, 87, 0, 786428, 87, 0, 851964, 87, 0, 917500, 87, 0, 983036, 87, 0, 1048572, 87, 0, 1114108, 87, 0, 1179644, 87, 0, 589821, 87, 0, 655357, 87, 0, 720893, 87, 0, 786429, 87, 0, 851965, 87, 0, 917501, 87, 0, 983037, 87, 0, 1048573, 87, 0, 1114109, 87, 0, 1179645, 87, 0, 589822, 87, 0, 655358, 87, 0, 720894, 87, 0, 786430, 87, 0, 851966, 87, 0, 917502, 87, 0, 983038, 87, 0, 1048574, 87, 0, 1114110, 87, 0, 1179646, 87, 0, 589823, 87, 0, 655359, 87, 0, 720895, 87, 0, 786431, 87, 0, 851967, 87, 0, 917503, 87, 0, 983039, 87, 0, 1048575, 87, 0, 1114111, 87, 0, 1179647, 87, 0, 524288, 87, 0, 589824, 87, 0, 655360, 87, 0, 720896, 87, 0, 786432, 87, 0, 851968, 87, 0, 917504, 87, 0, 983040, 87, 0, 1048576, 87, 0, 1114112, 87, 0, 524289, 87, 0, 589825, 87, 0, 655361, 87, 0, 720897, 87, 0, 786433, 87, 0, 851969, 87, 0, 917505, 87, 0, 983041, 87, 0, 1048577, 87, 0, 1114113, 87, 0, 524290, 87, 0, 589826, 87, 0, 655362, 87, 0, 720898, 87, 0, 786434, 87, 0, 851970, 87, 0, 917506, 87, 0, 983042, 87, 0, 1048578, 87, 0, 1114114, 87, 0, 524291, 87, 0, 589827, 87, 0, 655363, 87, 0, 720899, 87, 0, 786435, 87, 0, 851971, 87, 0, 917507, 87, 0, 983043, 87, 0, 1048579, 87, 0, 1114115, 87, 0, 524292, 87, 0, 589828, 87, 0, 655364, 87, 0, 720900, 87, 0, 786436, 87, 0, 851972, 87, 0, 917508, 87, 0, 983044, 87, 0, 1048580, 87, 0, 1114116, 87, 0, 524293, 87, 0, 589829, 87, 0, 655365, 87, 0, 720901, 87, 0, 786437, 87, 0, 851973, 87, 0, 917509, 87, 0, 983045, 87, 0, 1048581, 87, 0, 1114117, 87, 0, 524294, 87, 0, 589830, 87, 0, 655366, 87, 0, 720902, 87, 0, 786438, 87, 0, 851974, 87, 0, 917510, 87, 0, 983046, 87, 0, 1048582, 87, 0, 1114118, 87, 0, 524295, 87, 0, 589831, 87, 0, 655367, 87, 0, 720903, 87, 0, 786439, 87, 0, 851975, 87, 0, 917511, 87, 0, 983047, 87, 0, 1048583, 87, 0, 1114119, 87, 0, 524296, 87, 0, 589832, 87, 0, 655368, 87, 0, 720904, 87, 0, 786440, 87, 0, 851976, 87, 0, 917512, 87, 0, 983048, 87, 0, 1048584, 87, 0, 1114120, 87, 0, 524297, 87, 0, 589833, 87, 0, 655369, 87, 0, 720905, 87, 0, 786441, 87, 0, 851977, 87, 0, 917513, 87, 0, 983049, 87, 0, 1048585, 87, 0, 1114121, 87, 0, 524298, 87, 0, 589834, 87, 0, 655370, 87, 0, 720906, 87, 0, 786442, 87, 0, 851978, 87, 0, 917514, 87, 0, 983050, 87, 0, 1048586, 87, 0, 1114122, 87, 0, 524299, 87, 0, 589835, 87, 0, 655371, 87, 0, 720907, 87, 0, 786443, 87, 0, 851979, 87, 0, 917515, 87, 0, 983051, 87, 0, 1048587, 87, 0, 1114123, 87, 0, 524300, 87, 0, 589836, 87, 0, 655372, 87, 0, 720908, 87, 0, 786444, 87, 0, 851980, 87, 0, 917516, 87, 0, 983052, 87, 0, 1048588, 87, 0, 1114124, 87, 0, 524301, 87, 0, 589837, 87, 0, 655373, 87, 0, 720909, 87, 0, 786445, 87, 0, 851981, 87, 0, 917517, 87, 0, 983053, 87, 0, 1048589, 87, 0, 1114125, 87, 0, 524302, 87, 0, 589838, 87, 0, 655374, 87, 0, 720910, 87, 0, 786446, 87, 0, 851982, 87, 0, 917518, 87, 0, 983054, 87, 0, 1048590, 87, 0, 1114126, 87, 0, 524303, 87, 0, 589839, 87, 0, 655375, 87, 0, 720911, 87, 0, 786447, 87, 0, 851983, 87, 0, 917519, 87, 0, 983055, 87, 0, 1048591, 87, 0, 1114127, 87, 0, 524304, 87, 0, 589840, 87, 0, 655376, 87, 0, 720912, 87, 0, 786448, 87, 0, 851984, 87, 0, 917520, 87, 0, 983056, 87, 0, 1048592, 87, 0, 1114128, 87, 0, 524305, 87, 0, 589841, 87, 0, 655377, 87, 0, 720913, 87, 0, 786449, 87, 0, 851985, 87, 0, 917521, 87, 0, 983057, 87, 0, 1048593, 87, 0, 1114129, 87, 0, 524306, 87, 0, 589842, 87, 0, 655378, 87, 0, 720914, 87, 0, 786450, 87, 0, 851986, 87, 0, 917522, 87, 0, 983058, 87, 0, 1048594, 87, 0, 1114130, 87, 0, 524307, 87, 0, 589843, 87, 0, 655379, 87, 0, 720915, 87, 0, 786451, 87, 0, 851987, 87, 0, 917523, 87, 0, 983059, 87, 0, 1048595, 87, 0, 1114131, 87, 0, 524308, 87, 0, 589844, 87, 0, 655380, 87, 0, 720916, 87, 0, 786452, 87, 0, 851988, 87, 0, 917524, 87, 0, 983060, 87, 0, 1048596, 87, 0, 1114132, 87, 0, 524309, 87, 0, 589845, 87, 0, 655381, 87, 0, 720917, 87, 0, 786453, 87, 0, 851989, 87, 0, 917525, 87, 0, 983061, 87, 0, 1048597, 87, 0, 1114133, 87, 0, 524310, 87, 0, 589846, 87, 0, 655382, 87, 0, 720918, 87, 0, 786454, 87, 0, 851990, 87, 0, 917526, 87, 0, 983062, 87, 0, 1048598, 87, 0, 1114134, 87, 0, 524311, 87, 0, 589847, 87, 0, 655383, 87, 0, 720919, 87, 0, 786455, 87, 0, 851991, 87, 0, 917527, 87, 0, 983063, 87, 0, 1048599, 87, 0, 1114135, 87, 0, 524312, 87, 0, 589848, 87, 0, 655384, 87, 0, 720920, 87, 0, 786456, 87, 0, 851992, 87, 0, 917528, 87, 0, 983064, 87, 0, 1048600, 87, 0, 1114136, 87, 0, 524313, 87, 0, 589849, 87, 0, 655385, 87, 0, 720921, 87, 0, 786457, 87, 0, 851993, 87, 0, 917529, 87, 0, 983065, 87, 0, 1048601, 87, 0, 1114137, 87, 0, 524314, 87, 0, 589850, 87, 0, 655386, 87, 0, 720922, 87, 0, 786458, 87, 0, 851994, 87, 0, 917530, 87, 0, 983066, 87, 0, 1048602, 87, 0, 1114138, 87, 0, 524315, 87, 0, 589851, 87, 0, 655387, 87, 0, 720923, 87, 0, 786459, 87, 0, 851995, 87, 0, 917531, 87, 0, 983067, 87, 0, 1048603, 87, 0, 1114139, 87, 0, 524316, 87, 0, 589852, 87, 0, 655388, 87, 0, 720924, 87, 0, 786460, 87, 0, 851996, 87, 0, 917532, 87, 0, 983068, 87, 0, 1048604, 87, 0, 1114140, 87, 0, 524317, 87, 0, 589853, 87, 0, 655389, 87, 0, 720925, 87, 0, 786461, 87, 0, 851997, 87, 0, 917533, 87, 0, 983069, 87, 0, 1048605, 87, 0, 1114141, 87, 0, 524318, 87, 0, 589854, 87, 0, 655390, 87, 0, 720926, 87, 0, 786462, 87, 0, 851998, 87, 0, 917534, 87, 0, 983070, 87, 0, 1048606, 87, 0, 1114142, 87, 0, 524319, 87, 0, 589855, 87, 0, 655391, 87, 0, 720927, 87, 0, 786463, 87, 0, 851999, 87, 0, 917535, 87, 0, 983071, 87, 0, 1048607, 87, 0, 1114143, 87, 0, 524320, 87, 0, 589856, 87, 0, 655392, 87, 0, 720928, 87, 0, 786464, 87, 0, 852000, 87, 0, 917536, 87, 0, 983072, 87, 0, 1048608, 87, 0, 1114144, 87, 0, 524321, 87, 0, 589857, 87, 0, 655393, 87, 0, 720929, 87, 0, 786465, 87, 0, 852001, 87, 0, 917537, 87, 0, 983073, 87, 0, 1048609, 87, 0, 1114145, 87, 0, 524322, 87, 0, 589858, 87, 0, 655394, 87, 0, 720930, 87, 0, 786466, 87, 0, 852002, 87, 0, 917538, 87, 0, 983074, 87, 0, 1048610, 87, 0, 1114146, 87, 0, 524323, 87, 0, 589859, 87, 0, 655395, 87, 0, 720931, 87, 0, 786467, 87, 0, 852003, 87, 0, 917539, 87, 0, 983075, 87, 0, 1048611, 87, 0, 1114147, 87, 0, 524324, 87, 0, 589860, 87, 0, 655396, 87, 0, 720932, 87, 0, 786468, 87, 0, 852004, 87, 0, 917540, 87, 0, 983076, 87, 0, 1048612, 87, 0, 1114148, 87, 0, 524325, 87, 0, 589861, 87, 0, 655397, 87, 0, 720933, 87, 0, 786469, 87, 0, 852005, 87, 0, 917541, 87, 0, 983077, 87, 0, 1048613, 87, 0, 1114149, 87, 0, 524326, 87, 0, 589862, 87, 0, 655398, 87, 0, 720934, 87, 0, 786470, 87, 0, 852006, 87, 0, 917542, 87, 0, 983078, 87, 0, 1048614, 87, 0, 1114150, 87, 0, 524327, 87, 0, 589863, 87, 0, 655399, 87, 0, 720935, 87, 0, 786471, 87, 0, 852007, 87, 0, 917543, 87, 0, 983079, 87, 0, 1048615, 87, 0, 1114151, 87, 0, 524328, 87, 0, 589864, 87, 0, 655400, 87, 0, 720936, 87, 0, 786472, 87, 0, 852008, 87, 0, 917544, 87, 0, 983080, 87, 0, 1048616, 87, 0, 1114152, 87, 0, 524329, 87, 0, 589865, 87, 0, 655401, 87, 0, 720937, 87, 0, 786473, 87, 0, 852009, 87, 0, 917545, 87, 0, 983081, 87, 0, 1048617, 87, 0, 1114153, 87, 0, 524330, 87, 0, 589866, 87, 0, 655402, 87, 0, 720938, 87, 0, 786474, 87, 0, 852010, 87, 0, 917546, 87, 0, 983082, 87, 0, 1048618, 87, 0, 1114154, 87, 0, 524331, 87, 0, 589867, 87, 0, 655403, 87, 0, 720939, 87, 0, 786475, 87, 0, 852011, 87, 0, 917547, 87, 0, 983083, 87, 0, 1048619, 87, 0, 1114155, 87, 0, 524332, 87, 0, 589868, 87, 0, 655404, 87, 0, 720940, 87, 0, 786476, 87, 0, 852012, 87, 0, 917548, 87, 0, 983084, 87, 0, 1048620, 87, 0, 1114156, 87, 0, 524333, 87, 0, 589869, 87, 0, 655405, 87, 0, 720941, 87, 0, 786477, 87, 0, 852013, 87, 0, 917549, 87, 0, 983085, 87, 0, 1048621, 87, 0, 1114157, 87, 0, 524334, 87, 0, 589870, 87, 0, 655406, 87, 0, 720942, 87, 0, 786478, 87, 0, 852014, 87, 0, 917550, 87, 0, 983086, 87, 0, 1048622, 87, 0, 1114158, 87, 0, 524335, 87, 0, 589871, 87, 0, 655407, 87, 0, 720943, 87, 0, 786479, 87, 0, 852015, 87, 0, 917551, 87, 0, 983087, 87, 0, 1048623, 87, 0, 1114159, 87, 0, 524336, 87, 0, 589872, 87, 0, 655408, 87, 0, 720944, 87, 0, 786480, 87, 0, 852016, 87, 0, 917552, 87, 0, 983088, 87, 0, 1048624, 87, 0, 1114160, 87, 0, 524337, 87, 0, 589873, 87, 0, 655409, 87, 0, 720945, 87, 0, 786481, 87, 0, 852017, 87, 0, 917553, 87, 0, 983089, 87, 0, 1048625, 87, 0, 1114161, 87, 0, 524338, 87, 0, 589874, 87, 0, 655410, 87, 0, 720946, 87, 0, 786482, 87, 0, 852018, 87, 0, 917554, 87, 0, 983090, 87, 0, 1048626, 87, 0, 1114162, 87, 0, 524339, 87, 0, 589875, 87, 0, 655411, 87, 0, 720947, 87, 0, 786483, 87, 0, 852019, 87, 0, 917555, 87, 0, 983091, 87, 0, 1048627, 87, 0, 1114163, 87, 0, 458796, 91, 0, 458797, 91, 0, 458798, 91, 0, 458799, 91, 0, 458800, 91, 0, 458801, 91, 0, 458802, 91, 0)

[node name="Players" type="Node2D" parent="."]

[node name="MultiplayerSpawner" type="MultiplayerSpawner" parent="."]
spawn_path = NodePath("../Players")
script = ExtResource("19_pqn8i")

[node name="Battler" parent="." instance=ExtResource("20_un3mw")]
position = Vector2(-31, -238)
